[
  {
    "index": 0,
    "value": 0.4099732990490448,
    "category": "that"
  },
  {
    "index": 1,
    "value": 0.4077778399424672,
    "category": "this"
  },
  {
    "index": 2,
    "value": -0.6830016495659132,
    "category": "that"
  },
  {
    "index": 3,
    "value": -0.8812356955272562,
    "category": "that"
  }
]